('C:\\Users\\jack.kay\\Desktop\\BitbucketRepos\\EcoesApiRequests\\ecoesapi\\build\\CallApi\\PKG-00.pkg',
 {'BINARY': 1,
  'DATA': 1,
  'EXECUTABLE': 1,
  'EXTENSION': 1,
  'PYMODULE': 1,
  'PYSOURCE': 1,
  'PYZ': 0,
  'SPLASH': 1},
 [('PYZ-00.pyz',
   'C:\\Users\\jack.kay\\Desktop\\BitbucketRepos\\EcoesApiRequests\\ecoesapi\\build\\CallApi\\PYZ-00.pyz',
   'PYZ'),
  ('struct',
   'C:\\Users\\jack.kay\\Desktop\\BitbucketRepos\\EcoesApiRequests\\ecoesapi\\build\\CallApi\\localpycos\\struct.pyo',
   'PYMODULE'),
  ('pyimod01_os_path',
   'c:\\users\\jack.kay\\desktop\\bitbucketrepos\\ecoesapirequests\\ecoesapi\\venv\\lib\\site-packages\\PyInstaller\\loader\\pyimod01_os_path.pyc',
   'PYMODULE'),
  ('pyimod02_archive',
   'c:\\users\\jack.kay\\desktop\\bitbucketrepos\\ecoesapirequests\\ecoesapi\\venv\\lib\\site-packages\\PyInstaller\\loader\\pyimod02_archive.pyc',
   'PYMODULE'),
  ('pyimod03_importers',
   'c:\\users\\jack.kay\\desktop\\bitbucketrepos\\ecoesapirequests\\ecoesapi\\venv\\lib\\site-packages\\PyInstaller\\loader\\pyimod03_importers.pyc',
   'PYMODULE'),
  ('pyimod04_ctypes',
   'c:\\users\\jack.kay\\desktop\\bitbucketrepos\\ecoesapirequests\\ecoesapi\\venv\\lib\\site-packages\\PyInstaller\\loader\\pyimod04_ctypes.pyc',
   'PYMODULE'),
  ('pyiboot01_bootstrap',
   'c:\\users\\jack.kay\\desktop\\bitbucketrepos\\ecoesapirequests\\ecoesapi\\venv\\lib\\site-packages\\PyInstaller\\loader\\pyiboot01_bootstrap.py',
   'PYSOURCE'),
  ('pyi_rth_pkgutil',
   'c:\\users\\jack.kay\\desktop\\bitbucketrepos\\ecoesapirequests\\ecoesapi\\venv\\lib\\site-packages\\PyInstaller\\hooks\\rthooks\\pyi_rth_pkgutil.py',
   'PYSOURCE'),
  ('pyi_rth_inspect',
   'c:\\users\\jack.kay\\desktop\\bitbucketrepos\\ecoesapirequests\\ecoesapi\\venv\\lib\\site-packages\\PyInstaller\\hooks\\rthooks\\pyi_rth_inspect.py',
   'PYSOURCE'),
  ('pyi_rth_pkgres',
   'c:\\users\\jack.kay\\desktop\\bitbucketrepos\\ecoesapirequests\\ecoesapi\\venv\\lib\\site-packages\\PyInstaller\\hooks\\rthooks\\pyi_rth_pkgres.py',
   'PYSOURCE'),
  ('pyi_rth_certifi',
   'c:\\users\\jack.kay\\desktop\\bitbucketrepos\\ecoesapirequests\\ecoesapi\\venv\\lib\\site-packages\\_pyinstaller_hooks_contrib\\hooks\\rthooks\\pyi_rth_certifi.py',
   'PYSOURCE'),
  ('CallApi',
   'C:\\Users\\jack.kay\\Desktop\\BitbucketRepos\\EcoesApiRequests\\ecoesapi\\CallApi.py',
   'PYSOURCE'),
  ('CallApi.exe.manifest',
   'C:\\Users\\jack.kay\\Desktop\\BitbucketRepos\\EcoesApiRequests\\ecoesapi\\build\\CallApi\\CallApi.exe.manifest',
   'BINARY')],
 True,
 False,
 False,
 [],
 None,
 None,
 None)
